{
  "movies": [
    {
      "id": 67,
      "title": "Ben Is Back",
      "poster_url": "https://image.tmdb.org/t/p/original/eSPiprXuWqwMGi6t8BkdiTz9Ou3.jpg",
      "thumbnail_url": "https://image.tmdb.org/t/p/w342/eSPiprXuWqwMGi6t8BkdiTz9Ou3.jpg",
      "release_date": "2019-01-16"
    },
    {
      "id": 1126,
      "title": "Chemins de travers",
      "poster_url": null,
      "thumbnail_url": null,
      "release_date": "2019-01-16"
    },
    {
      "id": 32,
      "title": "Colette",
      "poster_url": "https://image.tmdb.org/t/p/original/v5DiPTDnzOx5ePSguWYNdwzQOk3.jpg",
      "thumbnail_url": "https://image.tmdb.org/t/p/w342/v5DiPTDnzOx5ePSguWYNdwzQOk3.jpg",
      "release_date": "2019-01-16"
    },
    {
      "id": 16,
      "title": "Doubles vies",
      "poster_url": "https://image.tmdb.org/t/p/original/gWZUCupTs7lILnkspa5aJYZooP0.jpg",
      "thumbnail_url": "https://image.tmdb.org/t/p/w342/gWZUCupTs7lILnkspa5aJYZooP0.jpg",
      "release_date": "2019-01-16"
    },
    {
      "id": 157,
      "title": "Glass",
      "poster_url": "https://image.tmdb.org/t/p/original/myNXpKmBmYKqBABQEGjSpcK6nIk.jpg",
      "thumbnail_url": "https://image.tmdb.org/t/p/w342/myNXpKmBmYKqBABQEGjSpcK6nIk.jpg",
      "release_date": "2019-01-16"
    },
    {
      "id": 81,
      "title": "Holy Lands",
      "poster_url": "https://image.tmdb.org/t/p/original/amxfiAa0S6eAxhbNKHMLB9dxbWq.jpg",
      "thumbnail_url": "https://image.tmdb.org/t/p/w342/amxfiAa0S6eAxhbNKHMLB9dxbWq.jpg",
      "release_date": "2019-01-16"
    },
    {
      "id": 1127,
      "title": "Le musée des au revoir",
      "poster_url": "https://image.tmdb.org/t/p/original/3557Bml7iUiY5HCFbHaWTew8gKO.jpg",
      "thumbnail_url": "https://image.tmdb.org/t/p/w342/3557Bml7iUiY5HCFbHaWTew8gKO.jpg",
      "release_date": "2019-01-16"
    },
    {
      "id": 1130,
      "title": "Le Phallus et le Néant",
      "poster_url": "https://image.tmdb.org/t/p/original/ckTOd6gb1zR6DvdsWhkkJlLOdNq.jpg",
      "thumbnail_url": "https://image.tmdb.org/t/p/w342/ckTOd6gb1zR6DvdsWhkkJlLOdNq.jpg",
      "release_date": "2019-01-16"
    },
    {
      "id": 12,
      "title": "L'Incroyable Histoire du facteur Cheval",
      "poster_url": "https://image.tmdb.org/t/p/original/1C6fuMaaY2KeYH8BUK0up1el0LX.jpg",
      "thumbnail_url": "https://image.tmdb.org/t/p/w342/1C6fuMaaY2KeYH8BUK0up1el0LX.jpg",
      "release_date": "2019-01-16"
    },
    {
      "id": 1129,
      "title": "Mallé en son exil",
      "poster_url": null,
      "thumbnail_url": null,
      "release_date": "2019-01-16"
    },
    {
      "id": 124,
      "title": "The Front Runner",
      "poster_url": "https://image.tmdb.org/t/p/original/uDIEjEEIcaIcSS1htn8remZ9Df0.jpg",
      "thumbnail_url": "https://image.tmdb.org/t/p/w342/uDIEjEEIcaIcSS1htn8remZ9Df0.jpg",
      "release_date": "2019-01-16"
    },
    {
      "id": 51,
      "title": "Une jeunesse dorée",
      "poster_url": "https://image.tmdb.org/t/p/original/yP5m70KEcfDQ5BMPyctEeoBVnI0.jpg",
      "thumbnail_url": "https://image.tmdb.org/t/p/w342/yP5m70KEcfDQ5BMPyctEeoBVnI0.jpg",
      "release_date": "2019-01-16"
    },
    {
      "id": 1128,
      "title": "Un hiver avec les garçons",
      "poster_url": null,
      "thumbnail_url": null,
      "release_date": "2019-01-16"
    },
    {
      "id": 28,
      "title": "Un berger et deux perchés à l'Elysée ?",
      "poster_url": "https://image.tmdb.org/t/p/original/oYygg8B5cdNVHjzS3lq4h7Gy0Jw.jpg",
      "thumbnail_url": "https://image.tmdb.org/t/p/w342/oYygg8B5cdNVHjzS3lq4h7Gy0Jw.jpg",
      "release_date": "2019-01-13"
    },
    {
      "id": 155,
      "title": "An Elephant sitting still",
      "poster_url": "https://image.tmdb.org/t/p/original/5TnQEg0gnR2JDLUlWagdcIAq8KY.jpg",
      "thumbnail_url": "https://image.tmdb.org/t/p/w342/5TnQEg0gnR2JDLUlWagdcIAq8KY.jpg",
      "release_date": "2019-01-09"
    },
    {
      "id": 11,
      "title": "Border",
      "poster_url": "https://image.tmdb.org/t/p/original/imgNSsa8uo3g5aXeUCifBQA6uCS.jpg",
      "thumbnail_url": "https://image.tmdb.org/t/p/w342/imgNSsa8uo3g5aXeUCifBQA6uCS.jpg",
      "release_date": "2019-01-09"
    },
    {
      "id": 70,
      "title": "Comme elle vient",
      "poster_url": null,
      "thumbnail_url": null,
      "release_date": "2019-01-09"
    },
    {
      "id": 7,
      "title": "Creed II",
      "poster_url": "https://image.tmdb.org/t/p/original/dMw3q9WAY468ab7HqIMjsooMmUa.jpg",
      "thumbnail_url": "https://image.tmdb.org/t/p/w342/dMw3q9WAY468ab7HqIMjsooMmUa.jpg",
      "release_date": "2019-01-09"
    },
    {
      "id": 8,
      "title": "Edmond",
      "poster_url": "https://image.tmdb.org/t/p/original/kY169myiJT6VZjz6W3CyVQfU3xc.jpg",
      "thumbnail_url": "https://image.tmdb.org/t/p/w342/kY169myiJT6VZjz6W3CyVQfU3xc.jpg",
      "release_date": "2019-01-09"
    },
    {
      "id": 27,
      "title": "Jean Vanier, le sacrement de la tendresse",
      "poster_url": null,
      "thumbnail_url": null,
      "release_date": "2019-01-09"
    },
    {
      "id": 19,
      "title": "L'Ange",
      "poster_url": "https://image.tmdb.org/t/p/original/irkAV0jXfjstWmaKy10SaVxmGdC.jpg",
      "thumbnail_url": "https://image.tmdb.org/t/p/w342/irkAV0jXfjstWmaKy10SaVxmGdC.jpg",
      "release_date": "2019-01-09"
    },
    {
      "id": 9,
      "title": "Les Invisibles",
      "poster_url": "https://image.tmdb.org/t/p/original/a16ndbEJjfnQkyeVriMlIuAigwV.jpg",
      "thumbnail_url": "https://image.tmdb.org/t/p/w342/a16ndbEJjfnQkyeVriMlIuAigwV.jpg",
      "release_date": "2019-01-09"
    },
    {
      "id": 59,
      "title": "Les révoltés, images et paroles de mai 1968",
      "poster_url": null,
      "thumbnail_url": null,
      "release_date": "2019-01-09"
    },
    {
      "id": 14,
      "title": "L'Heure de la sortie",
      "poster_url": "https://image.tmdb.org/t/p/original/f9rTBbybHnSNS49lXadox9hhl6C.jpg",
      "thumbnail_url": "https://image.tmdb.org/t/p/w342/f9rTBbybHnSNS49lXadox9hhl6C.jpg",
      "release_date": "2019-01-09"
    },
    {
      "id": 60,
      "title": "Ombres et lumières",
      "poster_url": "https://image.tmdb.org/t/p/original/jLmEAso65GBMzgqCRm0CNpkLLvD.jpg",
      "thumbnail_url": "https://image.tmdb.org/t/p/w342/jLmEAso65GBMzgqCRm0CNpkLLvD.jpg",
      "release_date": "2019-01-09"
    },
    {
      "id": 13,
      "title": "A Bread Factory, Part 2 : Un petit coin de paradis",
      "poster_url": "https://image.tmdb.org/t/p/original/34sJUKsW3WRp8DCVSTaSSL8NPDI.jpg",
      "thumbnail_url": "https://image.tmdb.org/t/p/w342/34sJUKsW3WRp8DCVSTaSSL8NPDI.jpg",
      "release_date": "2019-01-02"
    },
    {
      "id": 6,
      "title": "Asako I & II",
      "poster_url": "https://image.tmdb.org/t/p/original/e5I89OB22L7kRJWEdJpW5yhVEfN.jpg",
      "thumbnail_url": "https://image.tmdb.org/t/p/w342/e5I89OB22L7kRJWEdJpW5yhVEfN.jpg",
      "release_date": "2019-01-02"
    },
    {
      "id": 2,
      "title": "Bienvenue à Marwen",
      "poster_url": "https://image.tmdb.org/t/p/original/uPpZAUKucoV73itKqfph5WsYkKy.jpg",
      "thumbnail_url": "https://image.tmdb.org/t/p/w342/uPpZAUKucoV73itKqfph5WsYkKy.jpg",
      "release_date": "2019-01-02"
    },
    {
      "id": 21,
      "title": "Never-Ending Man: Hayao Miyazaki",
      "poster_url": "https://image.tmdb.org/t/p/original/xykv597hQyB6boMOlyMZtj9z35i.jpg",
      "thumbnail_url": "https://image.tmdb.org/t/p/w342/xykv597hQyB6boMOlyMZtj9z35i.jpg",
      "release_date": "2019-01-02"
    },
    {
      "id": 3,
      "title": "Premières vacances",
      "poster_url": "https://image.tmdb.org/t/p/original/9qg2gSo8P3pcxrjRb0ZP93GVtjJ.jpg",
      "thumbnail_url": "https://image.tmdb.org/t/p/w342/9qg2gSo8P3pcxrjRb0ZP93GVtjJ.jpg",
      "release_date": "2019-01-02"
    },
    {
      "id": 4,
      "title": "Qui a tué Lady Winsley ?",
      "poster_url": "https://image.tmdb.org/t/p/original/dByfN6cMSn6R71P95Ev4cFVEh9m.jpg",
      "thumbnail_url": "https://image.tmdb.org/t/p/w342/dByfN6cMSn6R71P95Ev4cFVEh9m.jpg",
      "release_date": "2019-01-02"
    },
    {
      "id": 80,
      "title": "Spycies",
      "poster_url": "https://image.tmdb.org/t/p/original/baLUyGQs992Rk4ZtHI4stKnsSAj.jpg",
      "thumbnail_url": "https://image.tmdb.org/t/p/w342/baLUyGQs992Rk4ZtHI4stKnsSAj.jpg",
      "release_date": "2019-01-02"
    },
    {
      "id": 871,
      "title": "Tout ce qu'il reste de la révolution",
      "poster_url": null,
      "thumbnail_url": null,
      "release_date": "2019-01-02"
    },
    {
      "id": 5,
      "title": "Un beau voyou",
      "poster_url": "https://image.tmdb.org/t/p/original/nWqACiH55OsrKFSRzrsbXTh56OV.jpg",
      "thumbnail_url": "https://image.tmdb.org/t/p/w342/nWqACiH55OsrKFSRzrsbXTh56OV.jpg",
      "release_date": "2019-01-02"
    },
    {
      "id": 191,
      "title": "Undercover - Une histoire vraie",
      "poster_url": "https://image.tmdb.org/t/p/original/cfgXKHm6r5z4FGCVTZMoPWPmGCk.jpg",
      "thumbnail_url": "https://image.tmdb.org/t/p/w342/cfgXKHm6r5z4FGCVTZMoPWPmGCk.jpg",
      "release_date": "2019-01-02"
    },
    {
      "id": 10,
      "title": "Une femme d'exception",
      "poster_url": "https://image.tmdb.org/t/p/original/1CQ7pBRbRjBs2O7otJK2M2GrSAV.jpg",
      "thumbnail_url": "https://image.tmdb.org/t/p/w342/1CQ7pBRbRjBs2O7otJK2M2GrSAV.jpg",
      "release_date": "2019-01-02"
    },
    {
      "id": 137,
      "title": "C'est ça l'amour",
      "poster_url": "https://image.tmdb.org/t/p/original/ysB1zLEW9uD8QDq94HvMbokr3AG.jpg",
      "thumbnail_url": "https://image.tmdb.org/t/p/w342/ysB1zLEW9uD8QDq94HvMbokr3AG.jpg",
      "release_date": "2018-12-31"
    },
    {
      "id": 161,
      "title": "Girls with Balls",
      "poster_url": "https://image.tmdb.org/t/p/original/cxusiFpBgcbDCc9Y84PeKO0dM8l.jpg",
      "thumbnail_url": "https://image.tmdb.org/t/p/w342/cxusiFpBgcbDCc9Y84PeKO0dM8l.jpg",
      "release_date": "2018-12-31"
    },
    {
      "id": 223,
      "title": "Au bout des doigts",
      "poster_url": "https://image.tmdb.org/t/p/original/eORQo5exXWF0LR5n7jSBbwbqWqx.jpg",
      "thumbnail_url": "https://image.tmdb.org/t/p/w342/eORQo5exXWF0LR5n7jSBbwbqWqx.jpg",
      "release_date": "2018-12-26"
    },
    {
      "id": 200,
      "title": "Bumblebee",
      "poster_url": "https://image.tmdb.org/t/p/original/7dqLjwFLD1K5HZVUF7qkheaByzL.jpg",
      "thumbnail_url": "https://image.tmdb.org/t/p/w342/7dqLjwFLD1K5HZVUF7qkheaByzL.jpg",
      "release_date": "2018-12-26"
    }
  ],
  "meta": {
    "current_page": 1,
    "next_page": 2,
    "prev_page": null,
    "total_pages": 26,
    "total_count": 1034
  }
}
